{
    "versions": [
        {
            "id": "1",
            "version": "current",
            "release_day": null,
            "retirement_day": null,
            "status": "current",
            "release_notes_uri": null,
            "note": null,
            "order": 0,
            "links": {
                "browser": "1",
                "supports": [],
                "history_current": "1",
                "history": [
                    "1"
                ]
            }
        },
        {
            "id": "2",
            "version": "1.0",
            "release_day": null,
            "retirement_day": null,
            "status": "unknown",
            "release_notes_uri": null,
            "note": null,
            "order": 1,
            "links": {
                "browser": "1",
                "supports": [
                    "1"
                ],
                "history_current": "2",
                "history": [
                    "2"
                ]
            }
        },
        {
            "id": "3",
            "version": "6.0",
            "release_day": null,
            "retirement_day": null,
            "status": "unknown",
            "release_notes_uri": null,
            "note": null,
            "order": 2,
            "links": {
                "browser": "1",
                "supports": [],
                "history_current": "3",
                "history": [
                    "3"
                ]
            }
        },
        {
            "id": "4",
            "version": "current",
            "release_day": null,
            "retirement_day": null,
            "status": "current",
            "release_notes_uri": null,
            "note": null,
            "order": 0,
            "links": {
                "browser": "2",
                "supports": [],
                "history_current": "4",
                "history": [
                    "4"
                ]
            }
        },
        {
            "id": "5",
            "version": "current",
            "release_day": null,
            "retirement_day": null,
            "status": "current",
            "release_notes_uri": null,
            "note": null,
            "order": 0,
            "links": {
                "browser": "3",
                "supports": [],
                "history_current": "5",
                "history": [
                    "5"
                ]
            }
        },
        {
            "id": "6",
            "version": "6.0",
            "release_day": null,
            "retirement_day": null,
            "status": "unknown",
            "release_notes_uri": null,
            "note": null,
            "order": 1,
            "links": {
                "browser": "3",
                "supports": [],
                "history_current": "6",
                "history": [
                    "6"
                ]
            }
        },
        {
            "id": "7",
            "version": "10.2",
            "release_day": null,
            "retirement_day": null,
            "status": "unknown",
            "release_notes_uri": null,
            "note": null,
            "order": 2,
            "links": {
                "browser": "3",
                "supports": [],
                "history_current": "7",
                "history": [
                    "7"
                ]
            }
        },
        {
            "id": "8",
            "version": "current",
            "release_day": null,
            "retirement_day": null,
            "status": "current",
            "release_notes_uri": null,
            "note": null,
            "order": 0,
            "links": {
                "browser": "4",
                "supports": [
                    "11",
                    "20"
                ],
                "history_current": "8",
                "history": [
                    "8"
                ]
            }
        },
        {
            "id": "9",
            "version": "1.0",
            "release_day": null,
            "retirement_day": null,
            "status": "unknown",
            "release_notes_uri": null,
            "note": null,
            "order": 1,
            "links": {
                "browser": "4",
                "supports": [
                    "2"
                ],
                "history_current": "9",
                "history": [
                    "9"
                ]
            }
        },
        {
            "id": "10",
            "version": "35.0",
            "release_day": null,
            "retirement_day": null,
            "status": "unknown",
            "release_notes_uri": null,
            "note": null,
            "order": 2,
            "links": {
                "browser": "4",
                "supports": [],
                "history_current": "10",
                "history": [
                    "10"
                ]
            }
        }
    ],
    "links": {
        "versions.browser": {
            "type": "browsers",
            "href": "https://browsercompat.org/api/v1/browsers/{versions.browser}"
        },
        "versions.supports": {
            "type": "supports",
            "href": "https://browsercompat.org/api/v1/supports/{versions.supports}"
        },
        "versions.history_current": {
            "type": "historical_versions",
            "href": "https://browsercompat.org/api/v1/historical_versions/{versions.history_current}"
        },
        "versions.history": {
            "type": "historical_versions",
            "href": "https://browsercompat.org/api/v1/historical_versions/{versions.history}"
        }
    },
    "meta": {
        "pagination": {
            "versions": {
                "previous": null,
                "next": "https://browsercompat.org/api/v1/versions?page=2",
                "count": 47
            }
        }
    }
}
